<svg width="28" height="28" viewBox="0 0 28 28" fill="none" xmlns="http://www.w3.org/2000/svg">
<path d="M1 15.1455H8L11 9L14 19.2424L17 13.097L19 17.1939H27" stroke="#DD3342" stroke-width="2" stroke-linecap="round" stroke-linejoin="round"/>
</svg>
