<svg width="34" height="34" viewBox="0 0 34 34" fill="none" xmlns="http://www.w3.org/2000/svg">
<path d="M27.0938 22.3125H22.8438C22.5503 22.3125 22.3125 22.5503 22.3125 22.8438V27.0938C22.3125 27.3872 22.5503 27.625 22.8438 27.625H27.0938C27.3872 27.625 27.625 27.3872 27.625 27.0938V22.8438C27.625 22.5503 27.3872 22.3125 27.0938 22.3125Z" fill="#272727"/>
<path d="M21.7812 18.0625H18.5938C18.3003 18.0625 18.0625 18.3003 18.0625 18.5938V21.7812C18.0625 22.0747 18.3003 22.3125 18.5938 22.3125H21.7812C22.0747 22.3125 22.3125 22.0747 22.3125 21.7812V18.5938C22.3125 18.3003 22.0747 18.0625 21.7812 18.0625Z" fill="#272727"/>
<path d="M31.3438 27.625H28.1562C27.8628 27.625 27.625 27.8628 27.625 28.1562V31.3438C27.625 31.6372 27.8628 31.875 28.1562 31.875H31.3438C31.6372 31.875 31.875 31.6372 31.875 31.3438V28.1562C31.875 27.8628 31.6372 27.625 31.3438 27.625Z" fill="#272727"/>
<path d="M31.3438 18.0625H29.2188C28.9253 18.0625 28.6875 18.3003 28.6875 18.5938V20.7188C28.6875 21.0122 28.9253 21.25 29.2188 21.25H31.3438C31.6372 21.25 31.875 21.0122 31.875 20.7188V18.5938C31.875 18.3003 31.6372 18.0625 31.3438 18.0625Z" fill="#272727"/>
<path d="M20.7188 28.6875H18.5938C18.3003 28.6875 18.0625 28.9253 18.0625 29.2188V31.3438C18.0625 31.6372 18.3003 31.875 18.5938 31.875H20.7188C21.0122 31.875 21.25 31.6372 21.25 31.3438V29.2188C21.25 28.9253 21.0122 28.6875 20.7188 28.6875Z" fill="#272727"/>
<path d="M27.0938 6.375H22.8438C22.5503 6.375 22.3125 6.61285 22.3125 6.90625V11.1562C22.3125 11.4497 22.5503 11.6875 22.8438 11.6875H27.0938C27.3872 11.6875 27.625 11.4497 27.625 11.1562V6.90625C27.625 6.61285 27.3872 6.375 27.0938 6.375Z" fill="#272727"/>
<path d="M29.75 3.1875H20.1875C19.6007 3.1875 19.125 3.6632 19.125 4.25V13.8125C19.125 14.3993 19.6007 14.875 20.1875 14.875H29.75C30.3368 14.875 30.8125 14.3993 30.8125 13.8125V4.25C30.8125 3.6632 30.3368 3.1875 29.75 3.1875Z" stroke="#272727" stroke-width="2" stroke-linecap="round" stroke-linejoin="round"/>
<path d="M11.1562 6.375H6.90625C6.61285 6.375 6.375 6.61285 6.375 6.90625V11.1562C6.375 11.4497 6.61285 11.6875 6.90625 11.6875H11.1562C11.4497 11.6875 11.6875 11.4497 11.6875 11.1562V6.90625C11.6875 6.61285 11.4497 6.375 11.1562 6.375Z" fill="#272727"/>
<path d="M13.8125 3.1875H4.25C3.6632 3.1875 3.1875 3.6632 3.1875 4.25V13.8125C3.1875 14.3993 3.6632 14.875 4.25 14.875H13.8125C14.3993 14.875 14.875 14.3993 14.875 13.8125V4.25C14.875 3.6632 14.3993 3.1875 13.8125 3.1875Z" stroke="#272727" stroke-width="2" stroke-linecap="round" stroke-linejoin="round"/>
<path d="M11.1562 22.3125H6.90625C6.61285 22.3125 6.375 22.5503 6.375 22.8438V27.0938C6.375 27.3872 6.61285 27.625 6.90625 27.625H11.1562C11.4497 27.625 11.6875 27.3872 11.6875 27.0938V22.8438C11.6875 22.5503 11.4497 22.3125 11.1562 22.3125Z" fill="#272727"/>
<path d="M13.8125 19.125H4.25C3.6632 19.125 3.1875 19.6007 3.1875 20.1875V29.75C3.1875 30.3368 3.6632 30.8125 4.25 30.8125H13.8125C14.3993 30.8125 14.875 30.3368 14.875 29.75V20.1875C14.875 19.6007 14.3993 19.125 13.8125 19.125Z" stroke="#272727" stroke-width="2" stroke-linecap="round" stroke-linejoin="round"/>
</svg>
